%YAML 1.1
%TAG !u! tag:unity3d.com,2011:
--- !u!114 &11400000
MonoBehaviour:
  m_ObjectHideFlags: 0
  m_CorrespondingSourceObject: {fileID: 0}
  m_PrefabInstance: {fileID: 0}
  m_PrefabAsset: {fileID: 0}
  m_GameObject: {fileID: 0}
  m_Enabled: 1
  m_EditorHideFlags: 0
  m_Script: {fileID: 11500000, guid: 676b0f2dee6f6fc4e904b5c53544cab4, type: 3}
  m_Name: Castle1
  m_EditorClassIdentifier: 
  _health: 100
  _sprite: {fileID: 21300000, guid: 0e3639c44f8c29b4981fc82e6ab58249, type: 3}
